RBasics
…
df <- tibble(x,y1,y2,y3,y4,y5,y6,y7,y8,y9,y10,y11,y12,y13,y14,y15,y16,y17,y18,y19,y20)
df

## # A tibble: 100 x 21
##        x         y1          y2        y3          y4        y5
##    <int>      <dbl>       <dbl>     <dbl>       <dbl>     <dbl>
##  1     1 -0.5324130  0.21940937 0.1255200  0.65209883 -1.086022
##  2     2  0.6241217  1.23713187 0.2650116 -0.08450899 -2.294905
##  3     3 -0.5301196  0.26554712 0.4505296 -0.90440753 -3.065137
##  4     4 -1.3014416  0.12206365 2.1072823 -1.83320230 -2.763641
##  5     5 -0.4967668 -1.60746851 1.7603625 -3.49777218 -4.003015
##  6     6 -1.1733904 -0.54817813 2.1128257 -3.38673496 -4.447226
##  7     7 -0.6540328 -2.31507387 2.2470714 -1.72608349 -3.651109
##  8     8 -0.2835289 -2.77805546 3.3001261 -1.50232968 -3.928788
##  9     9 -0.5806924 -1.31151923 3.2339913 -1.83347116 -2.241956
## 10    10  0.5049178 -0.02347006 3.3498792 -1.82601416 -1.124429
## # ... with 90 more rows, and 15 more variables: y6 <dbl>, y7 <dbl>,
## #   y8 <dbl>, y9 <dbl>, y10 <dbl>, y11 <dbl>, y12 <dbl>, y13 <dbl>,
## #   y14 <dbl>, y15 <dbl>, y16 <dbl>, y17 <dbl>, y18 <dbl>, y19 <dbl>,
## #   y20 <dbl>
…
